<?xml version="1.0" encoding="UTF-8" standalone="no"?>
<!-- Created with Inkscape (http://www.inkscape.org/) -->
<svg
   xmlns:dc="http://purl.org/dc/elements/1.1/"
   xmlns:cc="http://creativecommons.org/ns#"
   xmlns:rdf="http://www.w3.org/1999/02/22-rdf-syntax-ns#"
   xmlns:svg="http://www.w3.org/2000/svg"
   xmlns="http://www.w3.org/2000/svg"
   xmlns:sodipodi="http://sodipodi.sourceforge.net/DTD/sodipodi-0.dtd"
   xmlns:inkscape="http://www.inkscape.org/namespaces/inkscape"
   width="48px"
   height="48px"
   id="svg2393"
   sodipodi:version="0.32"
   inkscape:version="0.46"
   sodipodi:docname="alpha.svg"
   inkscape:output_extension="org.inkscape.output.svg.inkscape">
  <defs
     id="defs2395">
    <inkscape:perspective
       sodipodi:type="inkscape:persp3d"
       inkscape:vp_x="0 : 24 : 1"
       inkscape:vp_y="0 : 1000 : 0"
       inkscape:vp_z="48 : 24 : 1"
       inkscape:persp3d-origin="24 : 16 : 1"
       id="perspective2401" />
  </defs>
  <sodipodi:namedview
     id="base"
     pagecolor="#ffffff"
     bordercolor="#666666"
     borderopacity="1.0"
     inkscape:pageopacity="0.0"
     inkscape:pageshadow="2"
     inkscape:zoom="3.5"
     inkscape:cx="37.843244"
     inkscape:cy="9.8192096"
     inkscape:current-layer="layer1"
     showgrid="true"
     inkscape:grid-bbox="true"
     inkscape:document-units="px"
     inkscape:window-width="1284"
     inkscape:window-height="716"
     inkscape:window-x="239"
     inkscape:window-y="25" />
  <metadata
     id="metadata2398">
    <rdf:RDF>
      <cc:Work
         rdf:about="">
        <dc:format>image/svg+xml</dc:format>
        <dc:type
           rdf:resource="http://purl.org/dc/dcmitype/StillImage" />
      </cc:Work>
    </rdf:RDF>
  </metadata>
  <g
     id="layer1"
     inkscape:label="Layer 1"
     inkscape:groupmode="layer">
    <path
       style="fill:none;fill-rule:evenodd;stroke:#000000;stroke-width:6.72622156;stroke-linecap:round;stroke-linejoin:round;stroke-miterlimit:4;stroke-dasharray:none;stroke-opacity:1"
       d="M 29.049669,5.5461302 C 24.62666,7.1073226 23.711733,13.307497 23.190611,18.297359 C 22.751831,22.498778 20.471221,26.510258 16.305649,26.648911 C 11.443012,26.810767 0.66046015,20.694064 7.1383752,11.535642 C 10.252121,7.1334553 16.321092,7.079924 20.63295,11.881145 C 23.60628,15.191926 22.732015,16.909867 23.425886,18.39941 C 24.66126,21.05141 28.337246,27.127699 33.093403,26.176467"
       id="path2403"
       sodipodi:nodetypes="csssssc" />
    <path
       sodipodi:nodetypes="csssssc"
       id="path3175"
       d="M 43.955937,39.130171 C 42.899573,39.503037 42.681058,40.983846 42.556596,42.175596 C 42.451801,43.179036 41.907114,44.137112 40.912235,44.170229 C 39.750874,44.208883 37.175633,42.748008 38.72278,40.560667 C 39.466449,39.509279 40.915921,39.496492 41.94574,40.643186 C 42.655871,41.433912 42.447068,41.844214 42.612786,42.199969 C 42.907837,42.833356 43.785786,44.284577 44.921718,44.057391"
       style="fill:none;fill-rule:evenodd;stroke:#000000;stroke-width:0.74130619;stroke-linecap:round;stroke-linejoin:round;stroke-miterlimit:4;stroke-dasharray:none;stroke-opacity:1" />
    <path
       style="fill:none;fill-rule:evenodd;stroke:#000000;stroke-width:1.3508147;stroke-linecap:round;stroke-linejoin:round;stroke-miterlimit:4;stroke-dasharray:none;stroke-opacity:1"
       d="M 44.102188,3.2522493 C 42.177272,3.9316893 41.779092,6.6300323 41.552296,8.8016503 C 41.361338,10.630127 40.368804,12.375942 38.555927,12.436288 C 36.439685,12.506723 31.747057,9.8447043 34.566283,5.8589123 C 35.921403,3.9430633 38.562643,3.9197623 40.439189,6.0092793 C 41.733196,7.4501473 41.352713,8.1978033 41.654686,8.8460623 C 42.19233,10.000226 43.792137,12.644654 45.862042,12.230674"
       id="path3177"
       sodipodi:nodetypes="csssssc" />
    <path
       sodipodi:nodetypes="csssssc"
       id="path3179"
       d="M 17.593195,31.448861 C 14.814277,32.429739 14.239441,36.325221 13.912026,39.460292 C 13.636348,42.099986 12.20347,44.620343 9.5862971,44.707462 C 6.5311693,44.809147 -0.24337466,40.966104 3.8266193,35.211988 C 5.7829483,32.446159 9.5959931,32.412521 12.305081,35.429066 C 14.173183,37.509185 13.623897,38.588544 14.059842,39.524408 C 14.836016,41.190625 17.145588,45.008271 20.133821,44.410626"
       style="fill:none;fill-rule:evenodd;stroke:#000000;stroke-width:1.95011306;stroke-linecap:round;stroke-linejoin:round;stroke-miterlimit:4;stroke-dasharray:none;stroke-opacity:1" />
    <path
       sodipodi:nodetypes="csssssc"
       id="path3181"
       d="M 41.245045,29.252249 C 39.320129,29.931689 38.921949,32.630032 38.695153,34.80165 C 38.504195,36.630127 37.511661,38.375942 35.698784,38.436288 C 33.582542,38.506723 28.889914,35.844704 31.70914,31.858912 C 33.06426,29.943063 35.7055,29.919762 37.582046,32.009279 C 38.876053,33.450147 38.49557,34.197803 38.797543,34.846062 C 39.335187,36.000226 40.934994,38.644654 43.004899,38.230674"
       style="fill:none;fill-rule:evenodd;stroke:#000000;stroke-width:1.3508147;stroke-linecap:round;stroke-linejoin:round;stroke-miterlimit:4;stroke-dasharray:none;stroke-opacity:1" />
    <path
       style="fill:none;fill-rule:evenodd;stroke:#000000;stroke-width:1.07098079;stroke-linecap:round;stroke-linejoin:round;stroke-miterlimit:4;stroke-dasharray:none;stroke-opacity:1"
       d="M 27.805059,29.295009 C 26.278908,29.833696 25.963214,31.973052 25.783402,33.694799 C 25.632002,35.14449 24.845081,36.528643 23.407759,36.576487 C 21.729916,36.632332 18.00941,34.521774 20.244606,31.361677 C 21.319001,29.842714 23.413084,29.82424 24.900885,31.480894 C 25.926826,32.623272 25.625164,33.216045 25.864581,33.730011 C 26.290847,34.645079 27.559239,36.741688 29.200343,36.413468"
       id="path3183"
       sodipodi:nodetypes="csssssc" />
    <path
       sodipodi:nodetypes="csssssc"
       id="path3185"
       d="M 32.188176,42.288943 C 31.190693,42.641026 30.984357,44.039296 30.866833,45.164619 C 30.767879,46.112128 30.253553,47.016802 29.314128,47.048073 C 28.2175,47.084573 25.785799,45.705125 27.24671,43.639705 C 27.948928,42.64692 29.317608,42.634845 30.290026,43.717624 C 30.960575,44.464276 30.76341,44.851708 30.919892,45.187633 C 31.198496,45.785716 32.02751,47.156047 33.100125,46.941525"
       style="fill:none;fill-rule:evenodd;stroke:#000000;stroke-width:0.69998658;stroke-linecap:round;stroke-linejoin:round;stroke-miterlimit:4;stroke-dasharray:none;stroke-opacity:1" />
    <path
       style="fill:none;fill-rule:evenodd;stroke:#000000;stroke-width:0.7732476;stroke-linecap:round;stroke-linejoin:round;stroke-miterlimit:4;stroke-dasharray:none;stroke-opacity:1"
       d="M 46.21814,16.611288 C 45.11626,17.00022 44.888329,18.544834 44.758504,19.787934 C 44.649192,20.834609 44.081037,21.833969 43.043291,21.868511 C 41.831891,21.908832 39.145686,20.385009 40.759496,18.103422 C 41.535209,17.006732 43.047137,16.993393 44.121328,18.189496 C 44.862057,19.014292 44.644256,19.442274 44.817115,19.813356 C 45.124879,20.474035 46.040657,21.987787 47.225533,21.750813"
       id="path3187"
       sodipodi:nodetypes="csssssc" />
    <path
       sodipodi:nodetypes="csssssc"
       id="path3189"
       d="M 15.211178,16.142421 C 14.631284,16.347107 14.511329,17.160002 14.443005,17.814217 C 14.385477,18.365058 14.08647,18.890998 13.540328,18.909177 C 12.902796,18.930397 11.489108,18.128444 12.338419,16.927697 C 12.746659,16.350534 13.542352,16.343514 14.107674,16.972996 C 14.497503,17.407067 14.382879,17.632304 14.473851,17.827596 C 14.63582,18.175296 15.117773,18.971949 15.741346,18.847235"
       style="fill:none;fill-rule:evenodd;stroke:#000000;stroke-width:0.40694246;stroke-linecap:round;stroke-linejoin:round;stroke-miterlimit:4;stroke-dasharray:none;stroke-opacity:1" />
    <path
       sodipodi:nodetypes="csssssc"
       id="path3191"
       d="M 35.646711,12.325574 C 34.544831,12.714506 34.3169,14.25912 34.187075,15.50222 C 34.077763,16.548895 33.509608,17.548255 32.471862,17.582797 C 31.260462,17.623118 28.574257,16.099295 30.188067,13.817708 C 30.96378,12.721018 32.475708,12.707679 33.549899,13.903782 C 34.290628,14.728578 34.072827,15.15656 34.245686,15.527642 C 34.55345,16.188321 35.469228,17.702073 36.654104,17.465099"
       style="fill:none;fill-rule:evenodd;stroke:#000000;stroke-width:0.7732476;stroke-linecap:round;stroke-linejoin:round;stroke-miterlimit:4;stroke-dasharray:none;stroke-opacity:1" />
    <path
       style="fill:none;fill-rule:evenodd;stroke:#000000;stroke-width:0.7732476;stroke-linecap:round;stroke-linejoin:round;stroke-miterlimit:4;stroke-dasharray:none;stroke-opacity:1"
       d="M 47.075282,30.325574 C 45.973402,30.714506 45.745471,32.25912 45.615646,33.50222 C 45.506334,34.548895 44.938179,35.548255 43.900433,35.582797 C 42.689033,35.623118 40.002828,34.099295 41.616638,31.817708 C 42.392351,30.721018 43.904279,30.707679 44.97847,31.903782 C 45.719199,32.728578 45.501398,33.15656 45.674257,33.527642 C 45.982021,34.188321 46.897799,35.702073 48.082675,35.465099"
       id="path3193"
       sodipodi:nodetypes="csssssc" />
  </g>
</svg>
